interactions:
- request:
    body: ''
    headers:
      accept:
      - '*/*'
      accept-encoding:
      - gzip, deflate
      connection:
      - keep-alive
      host:
      - api.bitpanda.com
      user-agent:
      - python-httpx/0.28.1
      x-api-key:
      - DUMMY-KEY
    method: GET
    uri: https://api.bitpanda.com/v1/wallets/transactions
  response:
    body:
      string: '{"data":[{"type":"wallet_transaction","attributes":{"amount":"2.70196457","recipient":"","time":{"date_iso8601":"2025-09-23T10:23:44+02:00","unix":"1758615824"},"confirmations":0,"in_or_out":"outgoing","type":"sell","status":"finished","amount_eur":"2.29","amount_eur_incl_fee":"2.28","wallet_id":"abdbfb11-0edd-4013-8edb-e160201a6d32","confirmation_by":"not_required","confirmed":false,"cryptocoin_id":"26","cryptocoin_symbol":"WAVES","trade":{"type":"trade","attributes":{"status":"finished","type":"sell","cryptocoin_id":"26","cryptocoin_symbol":"WAVES","fiat_id":"4","amount_fiat":"2.00","amount_cryptocoin":"2.70196457","fiat_to_eur_rate":"1.14666637","wallet_id":"abdbfb11-0edd-4013-8edb-e160201a6d32","fiat_wallet_id":"6a93c731-6885-44a5-a29b-ef54a3aec065","time":{"date_iso8601":"2025-09-23T10:23:43+02:00","unix":"1758615823"},"price":"0.74","is_swap":false,"is_savings":false,"tags":[],"bfc_used":false,"is_card":false,"tax":{"type":"tax","attributes":{"amount_fiat":"0.55","fiat_id":4,"fiat_amount_after_tax":"1.45"}},"fee":{"type":"fee","attributes":{"fee_percentage":0,"fee_amount_in_fiat":"0.00000000"}},"is_fee_transparent":true},"id":"1f098569-bdf2-6fb0-0b22-3654326e33ed"},"last_changed":{"date_iso8601":"2025-09-23T10:23:44+02:00","unix":"1758615824"},"fee":"0.00000000","current_fiat_id":"1","current_fiat_amount":"2.29","is_savings":false,"is_metal_storage_fee":false,"tags":[],"public_status":"finished","is_bfc":false,"is_card":false},"id":"c49975ab-df28-71cf-ae9a-1e07b7b8d712"},{"type":"wallet_transaction","attributes":{"amount":"0.00121395","recipient":"LTC
        Wallet","time":{"date_iso8601":"2025-08-27T18:32:50+02:00","unix":"1756312370"},"confirmations":0,"in_or_out":"incoming","type":"transfer","status":"finished","amount_eur":"0.11","amount_eur_incl_fee":"0.10","related_wallet_transaction_id":"fc1f9163-5c7e-456f-8e86-a48f27c0cf18","related_wallet_id":"5827c8cb-1eb1-40f0-a7c5-3f1d92062997","wallet_id":"10fa22aa-0a1d-4405-878b-76e94eb83f1d","confirmation_by":"not_required","confirmed":false,"cryptocoin_id":"3","cryptocoin_symbol":"LTC","last_changed":{"date_iso8601":"2025-08-27T18:32:50+02:00","unix":"1756312370"},"fee":"0.00000000","current_fiat_id":"1","current_fiat_amount":"0.11","is_savings":false,"from":"BTC
        Wallet","is_metal_storage_fee":false,"tags":[{"type":"tag","attributes":{"short_name":"merger_crypto","name":"Merger
        Crypto"}}],"public_status":"finished","is_bfc":false,"is_card":false},"id":"0f40afb5-e46f-4c02-b061-e4252990566c"},{"type":"wallet_transaction","attributes":{"amount":"0.00121395","recipient":"LTC
        Wallet","time":{"date_iso8601":"2025-08-27T18:32:50+02:00","unix":"1756312370"},"confirmations":0,"in_or_out":"outgoing","type":"transfer","status":"finished","amount_eur":"116.77","amount_eur_incl_fee":"116.76","related_wallet_transaction_id":"0f40afb5-e46f-4c02-b061-e4252990566c","related_wallet_id":"10fa22aa-0a1d-4405-878b-76e94eb83f1d","wallet_id":"5827c8cb-1eb1-40f0-a7c5-3f1d92062997","confirmation_by":"not_required","confirmed":false,"cryptocoin_id":"1","cryptocoin_symbol":"BTC","last_changed":{"date_iso8601":"2025-08-27T18:32:50+02:00","unix":"1756312370"},"fee":"0.00000000","current_fiat_id":"1","current_fiat_amount":"116.77","is_savings":false,"from":"BTC
        Wallet","is_metal_storage_fee":false,"tags":[{"type":"tag","attributes":{"short_name":"merger_crypto","name":"Merger
        Crypto"}}],"public_status":"finished","is_bfc":false,"is_card":false},"id":"fc1f9163-5c7e-456f-8e86-a48f27c0cf18"},{"type":"wallet_transaction","attributes":{"amount":"39.65505440","recipient":"IOTA
        Wallet","time":{"date_iso8601":"2025-05-02T15:03:38+02:00","unix":"1746191018"},"confirmations":0,"in_or_out":"incoming","type":"transfer","status":"finished","amount_eur":"7.54","amount_eur_incl_fee":"7.53","related_wallet_transaction_id":"c5f78df4-6006-43cd-8bdf-e4193f897937","related_wallet_id":"1ed643c6-08e2-6200-8fd3-821d2037a0a8","wallet_id":"d2c8b985-883f-40b8-b233-4b41e92b672f","confirmation_by":"not_required","confirmed":false,"cryptocoin_id":"7201","cryptocoin_symbol":"IOTA","last_changed":{"date_iso8601":"2025-05-02T15:03:38+02:00","unix":"1746191018"},"fee":"0.00000000","current_fiat_id":"1","current_fiat_amount":"7.54","is_savings":false,"from":"MIOTA
        Wallet","is_metal_storage_fee":false,"tags":[{"type":"tag","attributes":{"short_name":"merger_crypto","name":"Merger
        Crypto"}}],"public_status":"finished","is_bfc":false,"is_card":false},"id":"6037b545-be87-40c7-acd5-48a68dcf01f6"},{"type":"wallet_transaction","attributes":{"amount":"39.65505440","recipient":"IOTA
        Wallet","time":{"date_iso8601":"2025-05-02T15:03:38+02:00","unix":"1746191018"},"confirmations":0,"in_or_out":"outgoing","type":"transfer","status":"finished","amount_eur":"7.01","amount_eur_incl_fee":"7.00","related_wallet_transaction_id":"6037b545-be87-40c7-acd5-48a68dcf01f6","related_wallet_id":"d2c8b985-883f-40b8-b233-4b41e92b672f","wallet_id":"1ed643c6-08e2-6200-8fd3-821d2037a0a8","confirmation_by":"not_required","confirmed":false,"cryptocoin_id":"13","cryptocoin_symbol":"MIOTA","last_changed":{"date_iso8601":"2025-05-02T15:03:38+02:00","unix":"1746191018"},"fee":"0.00000000","current_fiat_id":"1","current_fiat_amount":"7.01","is_savings":false,"from":"MIOTA
        Wallet","is_metal_storage_fee":false,"tags":[{"type":"tag","attributes":{"short_name":"merger_crypto","name":"Merger
        Crypto"}}],"public_status":"finished","is_bfc":false,"is_card":false},"id":"c5f78df4-6006-43cd-8bdf-e4193f897937"},{"type":"wallet_transaction","attributes":{"amount":"14.08628615","recipient":"","time":{"date_iso8601":"2025-01-27T18:21:14+01:00","unix":"1737998474"},"confirmations":0,"in_or_out":"outgoing","type":"transfer","status":"finished","amount_eur":"0.99","amount_eur_incl_fee":"0.98","wallet_id":"cc206c29-cb19-4601-8277-79153002e01d","confirmation_by":"not_required","confirmed":false,"cryptocoin_id":"433","cryptocoin_symbol":"POL","last_changed":{"date_iso8601":"2025-01-27T18:21:14+01:00","unix":"1737998474"},"fee":"0.00000000","current_fiat_id":"1","current_fiat_amount":"0.99","is_savings":false,"from":"MATIC
        Wallet","is_metal_storage_fee":false,"tags":[],"public_status":"finished","is_bfc":false,"is_card":false},"id":"9b80bd26-5549-4f45-94cb-e1ebe10d49f5"},{"type":"wallet_transaction","attributes":{"amount":"55.87192990","recipient":"","time":{"date_iso8601":"2025-01-27T17:57:14+01:00","unix":"1737997034"},"confirmations":0,"in_or_out":"outgoing","type":"transfer","status":"finished","amount_eur":"0.99","amount_eur_incl_fee":"0.98","wallet_id":"433ed686-231c-4bb4-b94d-555da78d6a00","confirmation_by":"not_required","confirmed":false,"cryptocoin_id":"419","cryptocoin_symbol":"CHZ","last_changed":{"date_iso8601":"2025-01-27T17:57:14+01:00","unix":"1737997034"},"fee":"0.00000000","current_fiat_id":"1","current_fiat_amount":"0.99","is_savings":false,"from":"CHZ
        Wallet","is_metal_storage_fee":false,"tags":[],"public_status":"finished","is_bfc":false,"is_card":false},"id":"544196df-564f-42a5-8f24-03d2c2754b60"},{"type":"wallet_transaction","attributes":{"amount":"0.00121395","recipient":"","time":{"date_iso8601":"2024-03-12T11:56:48+01:00","unix":"1710241008"},"confirmations":0,"in_or_out":"incoming","type":"buy","status":"finished","amount_eur":"80.00","amount_eur_incl_fee":"79.99","wallet_id":"5827c8cb-1eb1-40f0-a7c5-3f1d92062997","confirmation_by":"not_required","confirmed":false,"cryptocoin_id":"1","cryptocoin_symbol":"BTC","trade":{"type":"trade","attributes":{"status":"finished","type":"buy","cryptocoin_id":"1","cryptocoin_symbol":"BTC","fiat_id":"1","amount_fiat":"80.00","amount_cryptocoin":"0.00121395","fiat_to_eur_rate":"1.00000000","wallet_id":"5827c8cb-1eb1-40f0-a7c5-3f1d92062997","fiat_wallet_id":"d461aba3-65a6-413b-abb8-bb6ea833435b","time":{"date_iso8601":"2024-03-12T11:56:48+01:00","unix":"1710241008"},"price":"65900.13","is_swap":false,"is_savings":false,"tags":[],"bfc_used":false,"is_card":false,"is_fee_transparent":false},"id":"1eee05f3-83a1-66b0-4b51-85f97bbcadaf"},"last_changed":{"date_iso8601":"2024-03-12T11:56:48+01:00","unix":"1710241008"},"fee":"0.00000000","current_fiat_id":"1","current_fiat_amount":"80.00","is_savings":false,"is_metal_storage_fee":false,"tags":[],"public_status":"finished","is_bfc":false,"is_card":false},"id":"1eee05f3-90aa-655a-910c-dbadc7a6cbeb"},{"type":"wallet_transaction","attributes":{"amount":"2.28388000","recipient":"0x521687Af12fA5d81E4aE713cD46a4b1DbAAa9B79","time":{"date_iso8601":"2024-03-12T11:51:18+01:00","unix":"1710240678"},"confirmations":21514735,"in_or_out":"incoming","type":"deposit","status":"finished","amount_eur":"2.48","amount_eur_incl_fee":"2.61","wallet_id":"cc206c29-cb19-4601-8277-79153002e01d","confirmation_by":"not_required","confirmed":false,"cryptocoin_id":"433","cryptocoin_symbol":"POL","last_changed":{"date_iso8601":"2024-03-12T11:55:52+01:00","unix":"1710240952"},"fee":"0.11612000","current_fiat_id":"1","current_fiat_amount":"2.48","tx_id":"0xf4ef2ccc0db31974f445e17b5c88b37c7663b68714a5c7d0ea58bc5af0824a2b","is_savings":false,"is_metal_storage_fee":false,"tags":[],"public_status":"finished","is_bfc":false,"is_card":false,"coin_network_id":"1ede43b4-2e15-6d1d-9345-0fe7bd2a9765"},"id":"1eee05e7-4879-69c2-820d-2d72512aa1f6"},{"type":"wallet_transaction","attributes":{"amount":"1.18388000","recipient":"0x521687Af12fA5d81E4aE713cD46a4b1DbAAa9B79","time":{"date_iso8601":"2024-03-12T11:51:16+01:00","unix":"1710240676"},"confirmations":21141875,"in_or_out":"incoming","type":"deposit","status":"finished","amount_eur":"1.28","amount_eur_incl_fee":"1.41","wallet_id":"cc206c29-cb19-4601-8277-79153002e01d","confirmation_by":"not_required","confirmed":false,"cryptocoin_id":"433","cryptocoin_symbol":"POL","last_changed":{"date_iso8601":"2024-03-12T11:55:48+01:00","unix":"1710240948"},"fee":"0.11612000","current_fiat_id":"1","current_fiat_amount":"1.28","tx_id":"0x4ccf94adac7db17e55c0b7f58ca2e5cfca83111840e85a8b788a7cc3817ae3e3","is_savings":false,"is_metal_storage_fee":false,"tags":[],"public_status":"finished","is_bfc":false,"is_card":false,"coin_network_id":"1ede43b4-2e15-6d1d-9345-0fe7bd2a9765"},"id":"1eee05e7-364c-6b82-b8b8-cd65027ff854"}],"meta":{"total_count":84,"page_size":10,"page":1,"page_number":1,"next_cursor":"1eee05e7-364c-6b82-b8b8-cd65027ff854"},"links":{"next":"?page_number=2&page_size=10","last":"?page_number=9&page_size=10","self":"?page_number=1&page_size=10"}}'
    headers:
      CF-RAY:
      - 98bc74a27fc93e7b-DUB
      Connection:
      - keep-alive
      Content-Type:
      - application/json
      Date:
      - Thu, 09 Oct 2025 08:19:53 GMT
      Transfer-Encoding:
      - chunked
      access-control-allow-headers:
      - origin, content-type, access-token, x-bitpanda-academy, x-tracking-id, If-None-Match,
        If-Match, x-bitpanda-app-web, x-datadog-trace-id, x-datadog-parent-id, x-datadog-origin,
        x-datadog-sampling-priority, bp-broker-user-api-token-id
      access-control-allow-origin:
      - '*'
      cache-control:
      - no-store, private
      cf-cache-status:
      - DYNAMIC
      content-length:
      - '10369'
      server:
      - cloudflare
      strict-transport-security:
      - max-age=31536000; includeSubDomains
      vary:
      - Accept-Encoding,Origin,Access-Control-Request-Method,Access-Control-Request-Headers
      x-envoy-upstream-service-time:
      - '338'
      x-frame-options:
      - SAMEORIGIN
    status:
      code: 200
      message: OK
version: 1
