interactions:
- request:
    body: ''
    headers:
      accept:
      - '*/*'
      accept-encoding:
      - gzip, deflate
      connection:
      - keep-alive
      host:
      - api.bitpanda.com
      user-agent:
      - python-httpx/0.28.1
      x-api-key:
      - DUMMY-KEY
    method: GET
    uri: https://api.bitpanda.com/v1/fiatwallets/transactions
  response:
    body:
      string: '{"data":[{"type":"fiat_wallet_transaction","attributes":{"fiat_wallet_id":"6a93c731-6885-44a5-a29b-ef54a3aec065","user_id":"c37d5fc4-d4e2-4753-b3c7-46a2ff450b84","fiat_id":"4","amount":"0.55","fee":"0.00","to_eur_rate":"0.00000000","time":{"date_iso8601":"2025-09-23T10:23:44+02:00","unix":"1758615824"},"in_or_out":"incoming","type":"refund","status":"finished","confirmation_by":"not_required","confirmed":true,"requires_2fa_approval":false,"related_fiat_wallet_transaction_id":"c49975ab-df28-71cf-ae9a-1e07b811e4b5","is_savings":false,"recipient":"GBP
        Wallet","from":"Bitpanda","last_changed":{"date_iso8601":"2025-09-23T10:23:44+02:00","unix":"1758615824"},"tags":[{"type":"tag","attributes":{"short_name":"tax_withholding","name":"Tax
        Withholding"}}],"public_status":"finished","is_index":false,"is_card":false,"is_card_order_charge":false,"is_fee_transparent":false},"id":"85c1b171-a8e7-4ddd-8c12-6805f9a7cac8"},{"type":"fiat_wallet_transaction","attributes":{"fiat_wallet_id":"6a93c731-6885-44a5-a29b-ef54a3aec065","user_id":"c37d5fc4-d4e2-4753-b3c7-46a2ff450b84","fiat_id":"4","trade":{"type":"trade","attributes":{"status":"finished","type":"sell","cryptocoin_id":"26","cryptocoin_symbol":"WAVES","fiat_id":"4","amount_fiat":"2.00","amount_cryptocoin":"2.70196457","fiat_to_eur_rate":"1.14666637","wallet_id":"abdbfb11-0edd-4013-8edb-e160201a6d32","fiat_wallet_id":"6a93c731-6885-44a5-a29b-ef54a3aec065","time":{"date_iso8601":"2025-09-23T10:23:43+02:00","unix":"1758615823"},"price":"0.74","is_swap":false,"is_savings":false,"tags":[],"bfc_used":false,"is_card":false,"tax":{"type":"tax","attributes":{"amount_fiat":"0.55","fiat_id":4,"fiat_amount_after_tax":"1.45"}},"fee":{"type":"fee","attributes":{"fee_percentage":0,"fee_amount_in_fiat":"0.00000000"}},"is_fee_transparent":true},"id":"1f098569-bdf2-6fb0-0b22-3654326e33ed"},"amount":"1.45","fee":"0.00","to_eur_rate":"1.14500000","time":{"date_iso8601":"2025-09-23T10:23:44+02:00","unix":"1758615824"},"in_or_out":"incoming","type":"sell","status":"finished","confirmation_by":"not_required","confirmed":true,"requires_2fa_approval":false,"related_fiat_wallet_transaction_id":"85c1b171-a8e7-4ddd-8c12-6805f9a7cac8","is_savings":false,"last_changed":{"date_iso8601":"2025-09-23T10:23:44+02:00","unix":"1758615824"},"tags":[],"public_status":"finished","is_index":false,"is_card":false,"is_card_order_charge":false,"is_fee_transparent":false},"id":"c49975ab-df28-71cf-ae9a-1e07b811e4b5"},{"type":"fiat_wallet_transaction","attributes":{"fiat_wallet_id":"d461aba3-65a6-413b-abb8-bb6ea833435b","user_id":"c37d5fc4-d4e2-4753-b3c7-46a2ff450b84","fiat_id":"1","amount":"272.00","fee":"0.00","to_eur_rate":"0.00363971","time":{"date_iso8601":"2025-01-27T17:57:06+01:00","unix":"1737997026"},"in_or_out":"outgoing","type":"transfer","status":"finished","confirmation_by":"not_required","confirmed":true,"requires_2fa_approval":false,"is_savings":false,"from":"EUR
        Wallet","last_changed":{"date_iso8601":"2025-01-27T17:57:06+01:00","unix":"1737997026"},"tags":[],"public_status":"finished","is_index":false,"is_card":false,"is_card_order_charge":false,"is_fee_transparent":false},"id":"7bb29ea1-559d-4f58-ba58-b4df53c94a8a"},{"type":"fiat_wallet_transaction","attributes":{"fiat_wallet_id":"d461aba3-65a6-413b-abb8-bb6ea833435b","user_id":"c37d5fc4-d4e2-4753-b3c7-46a2ff450b84","fiat_id":"1","trade":{"type":"trade","attributes":{"status":"finished","type":"buy","cryptocoin_id":"1","cryptocoin_symbol":"BTC","fiat_id":"1","amount_fiat":"80.00","amount_cryptocoin":"0.00121395","fiat_to_eur_rate":"1.00000000","wallet_id":"5827c8cb-1eb1-40f0-a7c5-3f1d92062997","fiat_wallet_id":"d461aba3-65a6-413b-abb8-bb6ea833435b","time":{"date_iso8601":"2024-03-12T11:56:48+01:00","unix":"1710241008"},"price":"65900.13","is_swap":false,"is_savings":false,"tags":[],"bfc_used":false,"is_card":false,"is_fee_transparent":false},"id":"1eee05f3-83a1-66b0-4b51-85f97bbcadaf"},"amount":"80.00","fee":"0.00","to_eur_rate":"1.00000000","time":{"date_iso8601":"2024-03-12T11:56:48+01:00","unix":"1710241008"},"in_or_out":"outgoing","type":"buy","status":"finished","confirmation_by":"not_required","confirmed":true,"requires_2fa_approval":false,"is_savings":false,"last_changed":{"date_iso8601":"2024-03-12T11:56:48+01:00","unix":"1710241008"},"tags":[],"public_status":"finished","is_index":false,"is_card":false,"is_card_order_charge":false,"is_fee_transparent":false},"id":"1eee05f3-90aa-67bc-9658-5f424bc940fa"},{"type":"fiat_wallet_transaction","attributes":{"fiat_wallet_id":"d461aba3-65a6-413b-abb8-bb6ea833435b","user_id":"c37d5fc4-d4e2-4753-b3c7-46a2ff450b84","fiat_id":"1","trade":{"type":"trade","attributes":{"status":"finished","type":"buy","cryptocoin_id":"13","cryptocoin_symbol":"MIOTA","fiat_id":"1","amount_fiat":"10.00","amount_cryptocoin":"38.65514124","fiat_to_eur_rate":"1.00000000","wallet_id":"1ed643c6-08e2-6200-8fd3-821d2037a0a8","fiat_wallet_id":"d461aba3-65a6-413b-abb8-bb6ea833435b","time":{"date_iso8601":"2024-02-15T11:49:33+01:00","unix":"1707994173"},"price":"0.2586","is_swap":false,"is_savings":false,"tags":[],"bfc_used":false,"is_card":false,"is_fee_transparent":false},"id":"1eecbefe-44fc-6780-c84d-82d2c17e20e5"},"amount":"10.00","fee":"0.00","to_eur_rate":"1.00000000","time":{"date_iso8601":"2024-02-15T11:49:33+01:00","unix":"1707994173"},"in_or_out":"outgoing","type":"buy","status":"finished","confirmation_by":"not_required","confirmed":true,"requires_2fa_approval":false,"is_savings":false,"last_changed":{"date_iso8601":"2024-02-15T11:49:33+01:00","unix":"1707994173"},"tags":[],"public_status":"finished","is_index":false,"is_card":false,"is_card_order_charge":false,"is_fee_transparent":false},"id":"1eecbefe-652a-616a-b87c-31f7e516a7fd"},{"type":"fiat_wallet_transaction","attributes":{"fiat_wallet_id":"d461aba3-65a6-413b-abb8-bb6ea833435b","user_id":"c37d5fc4-d4e2-4753-b3c7-46a2ff450b84","fiat_id":"1","trade":{"type":"trade","attributes":{"status":"finished","type":"buy","cryptocoin_id":"26","cryptocoin_symbol":"WAVES","fiat_id":"1","amount_fiat":"6.00","amount_cryptocoin":"2.70196457","fiat_to_eur_rate":"1.00000000","wallet_id":"abdbfb11-0edd-4013-8edb-e160201a6d32","fiat_wallet_id":"d461aba3-65a6-413b-abb8-bb6ea833435b","time":{"date_iso8601":"2024-01-10T20:12:37+01:00","unix":"1704913957"},"price":"2.22","is_swap":false,"is_savings":false,"tags":[],"bfc_used":false,"is_card":false,"is_fee_transparent":false},"id":"1eeafec3-4868-6d80-f119-11a9543351cf"},"amount":"6.00","fee":"0.00","to_eur_rate":"1.00000000","time":{"date_iso8601":"2024-01-10T20:12:37+01:00","unix":"1704913957"},"in_or_out":"outgoing","type":"buy","status":"finished","confirmation_by":"not_required","confirmed":true,"requires_2fa_approval":false,"is_savings":false,"last_changed":{"date_iso8601":"2024-01-10T20:12:37+01:00","unix":"1704913957"},"tags":[],"public_status":"finished","is_index":false,"is_card":false,"is_card_order_charge":false,"is_fee_transparent":false},"id":"1eeafec3-6b6c-628c-9fe4-b3f5e9f10717"},{"type":"fiat_wallet_transaction","attributes":{"fiat_wallet_id":"d461aba3-65a6-413b-abb8-bb6ea833435b","user_id":"c37d5fc4-d4e2-4753-b3c7-46a2ff450b84","fiat_id":"1","trade":{"type":"trade","attributes":{"status":"finished","type":"buy","cryptocoin_id":"433","cryptocoin_symbol":"POL","fiat_id":"1","amount_fiat":"10.00","amount_cryptocoin":"15.72362545","fiat_to_eur_rate":"1.00000000","wallet_id":"cc206c29-cb19-4601-8277-79153002e01d","fiat_wallet_id":"d461aba3-65a6-413b-abb8-bb6ea833435b","time":{"date_iso8601":"2023-08-02T18:39:47+02:00","unix":"1690994387"},"price":"0.6359","is_swap":false,"is_savings":false,"tags":[],"bfc_used":false,"is_card":false,"is_fee_transparent":false},"id":"1ee31532-f591-6d40-1b77-d6c01c8e96ee"},"amount":"10.00","fee":"0.00","to_eur_rate":"1.00000000","time":{"date_iso8601":"2023-08-02T18:39:48+02:00","unix":"1690994388"},"in_or_out":"outgoing","type":"buy","status":"finished","confirmation_by":"not_required","confirmed":true,"requires_2fa_approval":false,"is_savings":false,"last_changed":{"date_iso8601":"2023-08-02T18:39:48+02:00","unix":"1690994388"},"tags":[],"public_status":"finished","is_index":false,"is_card":false,"is_card_order_charge":false,"is_fee_transparent":false},"id":"1ee31533-12bc-6712-802d-2ef5503a047c"},{"type":"fiat_wallet_transaction","attributes":{"fiat_wallet_id":"d461aba3-65a6-413b-abb8-bb6ea833435b","user_id":"c37d5fc4-d4e2-4753-b3c7-46a2ff450b84","fiat_id":"1","trade":{"type":"trade","attributes":{"status":"finished","type":"buy","cryptocoin_id":"27","cryptocoin_symbol":"USDT","fiat_id":"1","amount_fiat":"20.00","amount_cryptocoin":"20.18630445","fiat_to_eur_rate":"1.00000000","wallet_id":"1dd6daa4-0560-4aff-b75d-9e37ae48b665","fiat_wallet_id":"d461aba3-65a6-413b-abb8-bb6ea833435b","time":{"date_iso8601":"2022-07-26T18:28:30+02:00","unix":"1658852910"},"price":"0.9907","is_swap":false,"is_savings":false,"tags":[],"bfc_used":false,"is_card":false,"is_fee_transparent":false},"id":"8a617369-f509-44e6-8a54-d0031ec486cd"},"amount":"20.00","fee":"0.00","to_eur_rate":"1.00000000","time":{"date_iso8601":"2022-07-26T18:28:31+02:00","unix":"1658852911"},"in_or_out":"outgoing","type":"buy","status":"finished","confirmation_by":"not_required","confirmed":true,"requires_2fa_approval":false,"is_savings":false,"last_changed":{"date_iso8601":"2022-07-26T18:28:31+02:00","unix":"1658852911"},"tags":[],"public_status":"finished","is_index":false,"is_card":false,"is_card_order_charge":false,"is_fee_transparent":false},"id":"7d0cf28f-57a9-4223-a0e1-10b41744760e"},{"type":"fiat_wallet_transaction","attributes":{"fiat_wallet_id":"d461aba3-65a6-413b-abb8-bb6ea833435b","user_id":"c37d5fc4-d4e2-4753-b3c7-46a2ff450b84","fiat_id":"1","trade":{"type":"trade","attributes":{"status":"finished","type":"buy","cryptocoin_id":"6","cryptocoin_symbol":"LSK","fiat_id":"1","amount_fiat":"30.00","amount_cryptocoin":"29.94524617","fiat_to_eur_rate":"1.00000000","wallet_id":"f3181f81-d948-4720-862f-d2f41f71e970","fiat_wallet_id":"d461aba3-65a6-413b-abb8-bb6ea833435b","time":{"date_iso8601":"2022-07-14T12:18:23+02:00","unix":"1657793903"},"price":"1.00","is_swap":false,"is_savings":false,"tags":[],"bfc_used":false,"is_card":false,"is_fee_transparent":false},"id":"0b028aa0-8446-4f2d-872d-0b802b08b4ab"},"amount":"30.00","fee":"0.00","to_eur_rate":"1.00000000","time":{"date_iso8601":"2022-07-14T12:18:23+02:00","unix":"1657793903"},"in_or_out":"outgoing","type":"buy","status":"finished","confirmation_by":"not_required","confirmed":true,"requires_2fa_approval":false,"is_savings":false,"last_changed":{"date_iso8601":"2022-07-14T12:18:23+02:00","unix":"1657793903"},"tags":[],"public_status":"finished","is_index":false,"is_card":false,"is_card_order_charge":false,"is_fee_transparent":false},"id":"70dddc11-2ad6-4659-bb64-64002928cd0f"},{"type":"fiat_wallet_transaction","attributes":{"fiat_wallet_id":"d461aba3-65a6-413b-abb8-bb6ea833435b","user_id":"c37d5fc4-d4e2-4753-b3c7-46a2ff450b84","fiat_id":"1","trade":{"type":"trade","attributes":{"status":"finished","type":"buy","cryptocoin_id":"28","cryptocoin_symbol":"XAU","fiat_id":"1","amount_fiat":"12.00","amount_cryptocoin":"0.20940835","fiat_to_eur_rate":"1.00000000","wallet_id":"fb338d09-2b18-4910-947b-a38c6636629f","fiat_wallet_id":"d461aba3-65a6-413b-abb8-bb6ea833435b","time":{"date_iso8601":"2022-04-25T10:13:35+02:00","unix":"1650874415"},"price":"57.30","is_swap":false,"is_savings":false,"tags":[],"bfc_used":false,"is_card":false,"is_fee_transparent":false},"id":"7defe08e-f7ad-46e3-baa7-ecd610f7f577"},"amount":"12.00","fee":"0.00","to_eur_rate":"1.00000000","time":{"date_iso8601":"2022-04-25T10:13:35+02:00","unix":"1650874415"},"in_or_out":"outgoing","type":"buy","status":"finished","confirmation_by":"not_required","confirmed":true,"requires_2fa_approval":false,"is_savings":false,"last_changed":{"date_iso8601":"2022-04-25T10:13:35+02:00","unix":"1650874415"},"tags":[],"public_status":"finished","is_index":false,"is_card":false,"is_card_order_charge":false,"is_fee_transparent":false},"id":"c11c1245-28f3-40cf-a9aa-d93e6bd72f96"}],"meta":{"total_count":14,"page_size":10,"page":1,"page_number":1,"next_cursor":"c11c1245-28f3-40cf-a9aa-d93e6bd72f96"},"links":{"next":"?page_number=2&page_size=10","last":"?page_number=2&page_size=10","self":"?page_number=1&page_size=10"}}'
    headers:
      CF-RAY:
      - 98b78080da19d4c9-DUB
      Connection:
      - keep-alive
      Content-Type:
      - application/json
      Date:
      - Wed, 08 Oct 2025 17:54:10 GMT
      Transfer-Encoding:
      - chunked
      access-control-allow-headers:
      - origin, content-type, access-token, x-bitpanda-academy, x-tracking-id, If-None-Match,
        If-Match, x-bitpanda-app-web, x-datadog-trace-id, x-datadog-parent-id, x-datadog-origin,
        x-datadog-sampling-priority, bp-broker-user-api-token-id
      access-control-allow-origin:
      - '*'
      cache-control:
      - no-store, private
      cf-cache-status:
      - DYNAMIC
      content-length:
      - '12307'
      server:
      - cloudflare
      strict-transport-security:
      - max-age=31536000; includeSubDomains
      vary:
      - Accept-Encoding,Origin,Access-Control-Request-Method,Access-Control-Request-Headers
      x-envoy-upstream-service-time:
      - '242'
      x-frame-options:
      - SAMEORIGIN
    status:
      code: 200
      message: OK
version: 1
